HTTP/1.1 200 OK
CACHE-CONTROL: max-age=1801
DATE: Wed, 25 Mar 2015 08:33:08 GMT
EXT:
LOCATION: http://192.168.0.5:49152/BinaryLight.xml
SERVER: Unspecified, UPnP/1.0, Unspecified
ST: upnp:rootdevice
USN: uuid:cc93d8e6-6b8b-4f60-87ca-228c36b5b0e8::upnp:rootdevice